*** Life<FredkinCell> 7x8 ***

Generation = 0, Population = 11.
---00---
000----0
-0------
-------0
--------
----0---
--0-0---

Generation = 1, Population = 23.
00-110-0
111-0-0-
-1------
-0----0-
----0--0
--0010--
-0--10--

Generation = 2, Population = 23.
--02210-
--2010--
----0---
010-00--
-00-1---
--1---00
0-----0-

Generation = 3, Population = 30.
-0-33210
-1-1----
01---0--
12--110-
--1-2-00
0-2010-1
-00--01-

Generation = 4, Population = 20.
01-----1
---2--00
-200-1--
---0-2--
--20----
-03-2--2
-1----2-

Generation = 5, Population = 27.
1203---2
1--31-1-
03-1-2-0
-20--30-
-----0-0
0--0-0--
02--10--

Generation = 6, Population = 29.
--------
-1-420-0
--0203--
--1-1410
00202-0-
1-3-2-02
-30-2-2-

Generation = 7, Population = 25.
-2-332-2
1-2-3---
---3-4--
1---2521
----30-0
2--0--13
-4--3-3-

Generation = 8, Population = 15.
--0443--
-1--40-0
-----5-0
-2------
--------
--3-2---
--0---4-

Generation = 9, Population = 26.
--1-5-12
1----1-1
-----6-1
1-1--5-1
-02-3---
-04--01-
-41030-0

Generation = 10, Population = 27.
12---32-
-12--21-
--0-0---
-220-6-2
--3--000
215-2-2-
0-2---4-

Generation = 11, Population = 30.
2---5--2
---4---1
-3-3-601
13-12723
00----1-
--6--0--
14303050

Generation = 12, Population = 28.
-2---323
1125-2--
-4--0-12
-4---8--
---0302-
-17--123
2-4--1-1

Generation = 13, Population = 30.
-3-45--4
2--6431-
------23
15212923
---1----
-2---23-
-4503252

Generation = 14, Population = 19.
--------
--2-5--1
-40--63-
2--2--3-
0--2---0
23------
2----363

Generation = 15, Population = 23.
--1-5--4
--3-----
-5---7--
3--32-4-
--333---
3470-23-
3---34-4

Generation = 16, Population = 18.
-32--32-
--4653-1
---3----
-----9-3
--------
--8---4-
4-5-4-6-

Generation = 17, Population = 23.
24----3-
---7--1-
---4----
---32---
--3--020
34902253
--6---74

Generation = 18, Population = 31.
3524-344
21485321
--0---3-
----3-43
0-433-3-
4----3-4
4-7-4---

Generation = 19, Population = 25.
-63-5-5-
-2-9-4--
0-1----3
3---4-54
1-5--040
-4-02-5-
5------4

*** Life<FredkinCell> 10x9 ***

Generation = 0, Population = 23.
---------
--0-0----
-00------
00------0
---0-----
---0----0
-00--000-
--0-----0
---0-00--
0-0----0-

Generation = 1, Population = 34.
--0-0----
--1--0---
---00---0
1--0---0-
00010----
-0-1000--
01--01-10
--1------
0-0--11-0
-----0--0

Generation = 2, Population = 40.
-01------
-02-0-0-0
0---1----
2---0-0--
-1----00-
0-0--11-0
1-----021
--200-00-
--100-2-1
0-0-01-01

*** Life<FredkinCell> 6x5 ***

Generation = 0, Population = 20.
-000-
--00-
-0-00
00-00
0000-
0-000

Generation = 1, Population = 21.
011-0
-0-1-
-101-
-101-
11110
10-11

Generation = 2, Population = 14.
1220-
---2-
02120
-2-2-
--2--
--0--

Generation = 3, Population = 12.
2---0
--0--
13--1
-3-3-
--3--
-011-

Generation = 4, Population = 15.
-220-
---2-
2----
-40--
-141-
11221

Generation = 5, Population = 15.
23--0
00-30
--12-
-----
-2---
22332

Generation = 6, Population = 14.
--2-1
--0--
2-2--
-403-
-3-10
33--3

Generation = 7, Population = 12.
-33--
00-30
-3---
--1--
--4--
4-3-4

Generation = 8, Population = 17.
--4-1
11041
-4-21
--23-
13-10
--4--

Generation = 9, Population = 21.
2-502
22152
-5-3-
04340
24--1
4---4

Generation = 10, Population = 12.
33-1-
-32--
2---1
---5-
3----
5--35

Generation = 11, Population = 16.
4-5-2
2-3-2
--2--
--3--
44--1
63446

Generation = 12, Population = 16.
5-6-3
3---3
25-31
0-450
--4-2
-4---

Generation = 13, Population = 17.
6---4
--3--
362-2
14-61
4-513
6---6

*** Life<FredkinCell> 7x10 ***

Generation = 0, Population = 14.
0-----0---
----------
0------0--
-0----0---
---0-0--0-
0---0-----
00---0----

Generation = 2, Population = 25.
0-0-0-010-
-0----1---
--00--0-10
0--1----1-
---0--0---
20--------
-210---00-

Generation = 4, Population = 33.
0--000-12-
0---1-----
-020112--2
-10--0----
----110110
--0-----1-
0-121--221

Generation = 6, Population = 38.
--12--0-4-
201--12---
-040-3--2-
--0----13-
01023-01--
412-011---
02123114--

Generation = 8, Population = 23.
2-------4-
----------
-----53-4-
1----10--1
03-23--1-1
--4---3---
-4---33642

Generation = 10, Population = 25.
--1--1----
4----23--0
-0----3--2
3--20-0-33
0--4--1--3
-----25-20
1--2------

*** Life<FredkinCell> 10x6 ***

Generation = 0, Population = 22.
0-----
-0-00-
0--00-
----00
-0----
000-0-
0----0
---00-
-0-0--
0--0--

Generation = 1, Population = 24.
---00-
0----0
--0-1-
00---1
-1---0
-11---
1-000-
000-1-
------
--010-

Generation = 2, Population = 28.
0-011-
-0000-
-----0
1----2
----01
----00
2-1--0
---020
00-0--
-01-10

Generation = 3, Population = 29.
-0-2-0
-111--
0000-1
-0----
0--0-2
0-10-1
----0-
-0----
1-010-
--2121

Generation = 4, Population = 30.
0103--
-2220-
1-1---
11----
1--1-3
1-2-02
201---
---0--
-0-2--
00-232

Generation = 5, Population = 29.
121---
0--310
2-2-1-
22-0-2
----04
-1301-
----00
0--12-
-1---0
1----3

Generation = 6, Population = 35.
--2-10
--2421
-0--21
-30--3
1-01--
12--22
201011
--02-0
1-02-1
----34

Generation = 7, Population = 26.
-233--
-----2
212--2
-----4
2--2--
2-30--
-12122
--132-
----0-
1-2-4-

Generation = 8, Population = 36.
13-410
0--423
3-302-
-30005
31-304
32-1-2
-2--33
---43-
1----1
----54

Generation = 9, Population = 31.
-4--2-
---5--
41--32
2-1---
-20415
-3-2--
-321--
0015-0
-1-202
1--26-

Generation = 10, Population = 33.
1-3--0
0-2-23
-2--43
3-2---
--15-6
3----2
-43233
1-2631
12031-
--2---

Generation = 11, Population = 29.
2-44-1
123--4
4-30--
-33-0-
-2-6-7
------
254344
2-3---
---4--
1-3-6-

Generation = 12, Population = 31.
34-5-2
2-4525
5-41-3
------
331-1-
3-3-2-
--5--5
304631
--0---
---2-4

Generation = 13, Population = 26.
-54623
-2---6
6---44
-3-005
----27
43--3-
----46
4-----
1-141-
------

Generation = 14, Population = 31.
3-----
-3-52-
-2---5
---1-6
3---3-
5432-2
-5-3-7
5046-1
2-2-22
1-326-

Generation = 15, Population = 27.
---62-
-4-63-
634--6
333-07
4-16-7
-5--33
2-----
-15-3-
-2----
2-----

Generation = 16, Population = 24.
-54--3
-54---
----47
444118
5--7--
5---4-
-55--7
--6--1
-3--2-
------

Generation = 17, Population = 25.
3--62-
2--63-
6-----
---22-
---837
6-3---
-6-3-8
-176-2
2--4--
-0--6-

*** Life<FredkinCell> 9x9 ***

Generation = 0, Population = 3.
---------
---0-----
---------
---------
0--------
---------
---------
----0----
---------

Generation = 2, Population = 10.
---------
-0---0---
0--------
---0-----
0-0------
----0----
0--------
--0---0--
---------

Generation = 4, Population = 11.
0--------
---0---0-
---------
----1----
--0-1----
---1-----
---------
1---0---0
0--------

Generation = 6, Population = 24.
--0------
-0--1----
0-0-1----
--1---00-
0-0-3-0--
00---0--0
1-0-1----
3--1----0
--0------

Generation = 8, Population = 10.
---------
---1---0-
0--------
----2----
------2-1
---1-----
1--------
--1---0--
---------

Generation = 10, Population = 25.
0--------
-0--3----
0-1---0-0
--1---11-
----4-2--
-11-101--
1-1---1-0
5--2----0
1--------

Generation = 12, Population = 26.
0-----0-0
---2---0-
0-3-3----
1-3---3-0
--1-6-2-1
---1-----
3-3-2----
5---1---2
3-----0-1

Generation = 14, Population = 28.
0-------0
000---0-0
2-5---2--
--3---52-
2-3------
-22-203--
5-3---2--
5--3----4
5-------3

*** Life<FredkinCell> 8x5 ***

Generation = 0, Population = 13.
----0
0--0-
0---0
-----
-00--
0-00-
----0
00---

Generation = 1, Population = 20.
0----
100-0
10---
000-0
-1---
-0-1-
-00--
110-0

Generation = 2, Population = 19.
1-0-0
211--
210--
--1--
---00
0-0-0
-1--0
22---

Generation = 3, Population = 26.
201--
32200
-210-
0-2-0
0-01-
-0-1-
02-01
3-0-0

Generation = 4, Population = 18.
-1--0
---11
2---0
10---
11---
010--
--0--
42-01

Generation = 5, Population = 25.
2-1-1
32222
3---1
2-2-0
22---
-2-1-
-21-1
53012

Generation = 6, Population = 18.
31202
4-3-3
-----
-0--1
---10
--0--
-3--2
641--

Generation = 7, Population = 22.
--3--
52424
321--
2-2-2
-2-2-
-----
-410-
75212

Generation = 8, Population = 19.
3-4-2
-3--5
432--
3-30-
--0--
--0--
--2--
86323

*** Life<FredkinCell> 9x7 ***

Generation = 0, Population = 11.
-----0-
-0-0--0
-0----0
-------
---0---
0------
--0----
-0-----
---0---

Generation = 2, Population = 30.
-1-1-00
-2-0102
----012
01-1--1
--1--00
011----
1---0--
1--1---
-110-0-

Generation = 4, Population = 25.
---3-00
1-00304
-1--0--
-3-----
---0-2-
-1111-1
10-0---
-----1-
--10---

Generation = 6, Population = 25.
-------
---2-2-
--00---
25-2-1-
00--12-
0-11---
30-2---
-11-1-1
--3-11-

Generation = 8, Population = 16.
--05---
1------
-------
-5-----
-02---1
01-1--1
---4-0-
-------
-2---30

Generation = 10, Population = 33.
132710-
142----
-3-1--3
-7----2
1----33
2-33303
-116---
22-3--2
-2-12--

*** Life<FredkinCell> 9x5 ***

Generation = 0, Population = 12.
-0-00
-----
0--0-
0--00
-----
-----
---00
----0
0----

Generation = 1, Population = 25.
0--11
00--0
1001-
100-1
0--00
---00
--01-
0---1
-0--0

*** Life<FredkinCell> 10x10 ***

Generation = 0, Population = 28.
-00----0-0
--0--00-00
---000-0--
-----00---
--0----0--
----0---0-
----0-----
-0------00
00--00--0-
----------

Generation = 2, Population = 51.
120----0-2
0--0-0--20
--02--00--
--11-02100
0--11--0-0
-01--10-01
01--21000-
---00-0102
2---2--1--
-1------10

Generation = 4, Population = 54.
122-0110-4
20-----14-
1-041---10
--1-----0-
--1131120-
1-3-210-01
2--023-22-
-2--21012-
-0--4--320
-1--1----2

Generation = 6, Population = 54.
-4-0---0--
4--2-11-41
3--432-03-
111--2-1-0
11-1-3--2-
-050410023
4-0--502--
04--4-01-3
3-1-4---4-
--11-1--2-

Generation = 8, Population = 53.
1--222--05
---21-314-
-0-4-4--32
33---2-3--
13-353-34-
30--412-4-
-1--3--430
26-2-3--43
5-3-6113--
--1-----44

Generation = 10, Population = 47.
---244---7
6-2-11-163
-----601--
-532-----1
35-575---1
3--16----4
-1---6063-
----5-----
-1-1831---
-3333210-6

Generation = 12, Population = 53.
-43-64-1--
-02-13---3
42-636-133
353-0---13
3----73-51
5-716342--
5---58-65-
26---5-2--
--5-8-----
1--5-4-256

Generation = 14, Population = 53.
---364111-
-2----5-6-
--0-3-0355
57--2-4---
352-9-3-5-
-191836---
--215-187-
2---77044-
--5--5146-
1-3---2-58

Generation = 16, Population = 38.
-5--64-11-
72-4----6-
-4-7----7-
5-5--24---
--------52
5-9---8---
--2-79-+71
-8-----4--
6-7-85---0
----444-5-

Generation = 18, Population = 45.
--448----9
-4-6------
---95-24-7
-8----65--
-526983---
51---3824-
---2----7-
2-127---53
--71-5167-
-356-66---

*** Life<FredkinCell> 7x5 ***

Generation = 0, Population = 15.
-000-
-0-0-
--000
0-0-0
-----
00-0-
---0-

Generation = 1, Population = 22.
0---0
01---
0--1-
--101
-0000
11-10
00010

Generation = 2, Population = 17.
1--0-
12000
1--2-
0----
--1-1
-2-21
-1-2-

Generation = 3, Population = 19.
2--1-
2---1
---3-
10101
0--02
130--
02-3-

Generation = 4, Population = 18.
300--
32-0-
-0-40
-----
-01--
24121
--0-0

Generation = 5, Population = 17.
-11--
-301-
-1--1
--101
----2
35---
0-131

Generation = 6, Population = 22.
3----
3412-
12042
--2-2
001-3
-6-2-
122-2

Generation = 7, Population = 20.
4-11-
452--
-3-5-
-0-0-
11-04
3---1
2333-

Generation = 8, Population = 14.
51-20
-6-2-
--062
-----
-----
-6122
---4-

Generation = 9, Population = 21.
6---1
-72-1
--173
--202
-1104
37-33
-3-5-

Generation = 10, Population = 18.
--122
-8-2-
--284
--3-3
--2-5
4814-
-4-6-

Generation = 11, Population = 18.
--233
4---1
---9-
-0-0-
1--06
592--
-5372

Generation = 12, Population = 18.
613--
-8222
132+-
-----
21--7
-+-4-
--4-3

Generation = 13, Population = 19.
72--3
49-33
243--
--303
3-2--
-+2-3
---7-

Generation = 14, Population = 14.
--3-4
5+24-
-5-+-
--4-4
-1---
-+-4-
-5---

Generation = 15, Population = 20.
7-43-
6+3--
-6-+-
-0-0-
32-07
5---3
2647-

Generation = 16, Population = 14.
82-44
-+-4-
--3+4
-----
-----
-+244
---8-

Generation = 17, Population = 21.
9---5
-+3-3
--4+5
--404
-2207
5+-55
-6-9-

*** Life<FredkinCell> 6x5 ***

Generation = 0, Population = 22.
0---0
0-000
00-0-
00000
0-0-0
00000

Generation = 2, Population = 16.
21-0-
0-220
20-0-
---2-
00-0-
-0-0-

Generation = 4, Population = 15.
2312-
-0-2-
2210-
1-2-1
--0--
---2-

Generation = 6, Population = 22.
-5122
10322
2-3-0
-2---
-1201
01121

Generation = 8, Population = 10.
--3--
---4-
-----
---3-
-3-21
233-1

Generation = 10, Population = 21.
3-3-2
-1-4-
-3401
2-351
-5421
455-3

*** Life<FredkinCell> 6x10 ***

Generation = 0, Population = 4.
---0------
---------0
--------0-
----------
----------
---------0

Generation = 2, Population = 10.
-0-0-0--0-
-------0-0
---0--0---
----------
--------0-
-------0--

Generation = 4, Population = 12.
-------00-
-----1-0--
---01---0-
---------0
---0------
-----0-0-0

Generation = 6, Population = 23.
---00110-1
---1-1-2--
-012-0-00-
-------0--
-0-011--0-
---1---0--

Generation = 8, Population = 14.
---0-----1
-1-1-----1
1---2---2-
---------0
---0----0-
-1-3-----0

Generation = 10, Population = 25.
01-212-02-
-1-3-1-2--
1-------21
-------1-0
01--220-0-
-----0-0-0

Generation = 12, Population = 18.
2--212----
-3--------
1-13-----1
-1-0-1-1-2
----4--0-1
---4------

Generation = 14, Population = 26.
21141-20-2
-3---3-3-3
11333-----
---2------
1--2-322-3
-------1-1

*** Life<FredkinCell> 10x7 ***

Generation = 0, Population = 8.
-------
------0
--0----
--00---
--0----
------0
-------
0------
-0-----
-------

Generation = 1, Population = 19.
------0
--0--0-
-01---0
-0110--
-01---0
--0--0-
0-----0
-------
--0----
-0-----

Generation = 2, Population = 27.
--0----
--100-0
0-2-0--
01--10-
0-2-0--
0-100-0
-00----
0-0---0
---0---
0------

Generation = 3, Population = 37.
-01-0-0
002----
1030--0
1211210
-030--0
102----
011-0--
-01--0-
----0-0
-0-0---

Generation = 4, Population = 18.
-------
--3-0--
2-----1
------1
01----1
--3-0-0
--2----
---00--
--0--0-
0-----0

Generation = 5, Population = 30.
--1-0--
00---00
-03-002
-2---1-
12--00-
1-4---1
-13---0
--111--
00-----
-00----

Generation = 6, Population = 32.
0-----0
1-3-0--
-14-1--
----2--
---01--
2-500-2
-24-001
00--200
1-000--
--10---

*** Life<FredkinCell> 8x7 ***

Generation = 0, Population = 15.
0------
---0--0
-0--0--
-0--0--
-0----0
------0
000-0--
------0

Generation = 1, Population = 38.
-0-0--0
000--0-
010-100
0-00100
010-001
0-0-001
1-1--0-
000-00-

Generation = 2, Population = 22.
-10-0--
-----10
1210---
--1---1
1-101-2
-0-----
-0-00--
----1-0

Generation = 3, Population = 29.
021---0
0--0-21
2-2110-
---0102
-1--2-3
-1----1
11-1-00
-0--2--

Generation = 4, Population = 28.
--2---1
--010--
3-3-210
00---1-
121-30-
--000--
22--01-
-10---0

Generation = 5, Population = 28.
-23-00-
001----
4241-21
1-1-1--
-3-0--3
-1--10-
3-1--2-
--102--

Generation = 6, Population = 27.
----111
--2-0-1
53-2232
2-2----
-41-3--
-2--2--
-22-030
01--3--

Generation = 7, Population = 25.
--30---
0--1---
-4-33--
3-3--12
----40-
0-00--1
-33-1-1
1--04-0

Generation = 8, Population = 22.
024-1--
-------
5-4-4-2
-0--1-3
----5-3
-2-12-2
34--2--
---1--1

Generation = 9, Population = 22.
1-5--1-
-0----1
-4--5-3
---0---
-------
-3-23-3
4-3133-
111--0-

Generation = 10, Population = 23.
-2-01--
-1--0-2
554---4
-03---3
-4--5-3
--0--0-
5--24--
-----11

Generation = 11, Population = 32.
13-1-11
----1-3
6--353-
-1-011-
1510-04
0---3--
-4-3531
1--1-22

Generation = 12, Population = 29.
24--12-
-1-12-4
--4----
323122-
-6----5
130240-
5---64-
--124--

Generation = 13, Population = 29.
3-5--3-
-222-2-
6553-34
434--3-
1-1--0-
-4--5--
6--37-1
112----

Generation = 14, Population = 26.
-46-141
0------
-----45
545-2--
2-20-15
1---6-3
74-4---
--3-4-2

Generation = 15, Population = 24.
-57-2-2
--2-2--
-55--56
---1-3-
-6-1-2-
--02-04
-53-7--
1--2---

Generation = 16, Population = 16.
36--3--
-2--3--
66----7
---2---
2-2----
-4--6-5
-6----1
-------

Generation = 17, Population = 33.
4-7144-
0-22424
7-5355-
-4--2-3
-6--5-5
-5-2--6
773-742
-1----2

Generation = 18, Population = 25.
5--25--
--3---5
86-4--7
-5---34
2-2-6--
--0-6--
8-448-3
-2--4-3

Generation = 19, Population = 29.
-6-3642
---2426
9-5-5--
56-2-4-
-63-7-5
-5-2-06
-7--9-4
----5-4

*** Life<FredkinCell> 5x9 ***

Generation = 0, Population = 23.
00-000-0-
--0---0-0
0-0-0000-
---0000--
0-0-0-0--

Generation = 1, Population = 22.
1101-10--
--1--01--
--10-1-1-
--01-11--
---01010-

Generation = 2, Population = 20.
2-12---0-
0--001---
-02-----0
-0-202-0-
-----1210

Generation = 3, Population = 24.
3-2--10-0
1-1--2100
--30-----
0103--110
-0-0---21

Generation = 4, Population = 24.
4-320--01
2---0-2--
--4-01---
12140222-
-1011----

Generation = 5, Population = 24.
5-4--1-12
30---2--0
--501-01-
23-5-3-30
--12--22-

Generation = 6, Population = 27.
61-202-2-
-110-3-01
-0612-1-0
34--0--41
0-2-1-3--

Generation = 7, Population = 20.
7-4----3-
-221-42--
-172-1---
--1--325-
11--2---1

Generation = 8, Population = 16.
-15--2--2
------3--
0-----11-
342----6-
22-2--3--

Generation = 9, Population = 24.
72620--3-
322---4-1
1-7--1--0
453---271
--2-21---

Generation = 10, Population = 24.
-37-12---
433-0--02
---22-1--
--45033--
2-3-32-21

Generation = 11, Population = 26.
-----3032
54-1---13
117-312-0
45-6-4--1
--42--332

Generation = 12, Population = 23.
73-214-4-
--3---4-4
2-8-4231-
---7053--
2-5-3-4--

Generation = 13, Population = 22.
8473-50--
--4--45--
--92-3-2-
--48-64--
---24253-

Generation = 14, Population = 20.
9-84---4-
5--105---
-1+-----0
-5-907-7-
-----3642

*** Life<FredkinCell> 9x10 ***

Generation = 0, Population = 9.
-0----0---
-0--------
----------
----------
--0-------
----------
--00------
----0----0
-0--------

Generation = 1, Population = 26.
010--0-0--
010---0---
-0--------
--0-------
-0-0------
---0------
-011-----0
-00--0--0-
0-0-0----0

Generation = 2, Population = 26.
-2-00-0-0-
---0------
-10---0---
-0--------
0-010-----
----0----0
0-2-00----
--1---00-0
-01-------

Generation = 3, Population = 33.
0---1----0
---1----0-
0-1--0-0--
-1000-0---
-01--0---0
--------0-
--3--1-0--
0--00-11--
01-0--00-0

Generation = 4, Population = 24.
-2---0----
-----0----
-120--0---
----1----0
0---------
-0--------
00----01--
1---10-200
-2-1-0----

Generation = 5, Population = 42.
0-0-110---
--0101----
02-1---0-0
010--00-0-
----0----0
010---00--
--3-0-1--0
20--2-1--1
----010000

Generation = 6, Population = 37.
--10-210--
---21--0-0
---2----0-
-21--110-0
---1---0--
1--0-0-10-
-04-1---01
31-0-0----
02-1--1---

Generation = 7, Population = 43.
-22-13--00
---32--10-
-2-3-000-0
032012--0-
00-20----0
---10-----
0-5--1---2
-2112---01
---20--0--

*** Life<FredkinCell> 5x9 ***

Generation = 0, Population = 24.
--00-0000
000----00
----0-000
---0-0-0-
000--0-00

Generation = 1, Population = 26.
0--1-1-1-
1---00011
000--01--
00--010-0
1-1-01--1

Generation = 2, Population = 27.
100-0202-
--0-1-122
1110012--
1-00----1
20-----02

Generation = 3, Population = 16.
2-----1--
-0-0--233
---11----
-----10-2
-1-0--01-

Generation = 4, Population = 17.
---1-22-0
---1-0--4
-11-2--0-
-0---2-0-
2---0--2-

*** Life<FredkinCell> 9x8 ***

Generation = 0, Population = 4.
---0----
--------
--------
--0-----
--------
--------
--------
--------
00------

Generation = 1, Population = 12.
--0-0---
---0----
--0-----
-0-0----
--0-----
--------
--------
00------
110-----

Generation = 2, Population = 13.
-0-0-0--
--0-----
---0----
0---0---
--------
--0-----
00------
--------
-210----

*** Life<FredkinCell> 10x5 ***

Generation = 0, Population = 18.
---00
--000
0--00
0---0
-0---
-----
0--00
-----
0--0-
00---

Generation = 1, Population = 26.
-----
001-1
10--1
1---1
--0-0
00-00
-0011
----0
1-0-0
-100-

Generation = 2, Population = 26.
000-0
-12-2
2--0-
2-00-
---0-
1---1
---22
00---
-0101
-211-

Generation = 3, Population = 27.
11--1
0--03
3-01-
3-111
---1-
-0-02
-003-
1----
-1212
0-2--

Generation = 4, Population = 24.
-20-2
-----
---21
4---2
00--0
11013
-----
-0--0
123-3
-23-0

Generation = 5, Population = 20.
131--
-120-
3-03-
5----
1----
-2---
0-03-
-1-01
2----
----1

Generation = 6, Population = 20.
24---
0---3
40--1
-011-
2----
1--1-
--1--
1-0-2
---1-
0--1-

Generation = 7, Population = 24.
-51-2
-1-04
----2
5--2-
3-0--
22--3
-02-2
--10-
---2-
-2321

Generation = 8, Population = 28.
2-203
02215
40-33
60---
-0--0
--014
---33
-----
-23--
03-32

Generation = 9, Population = 28.
35-1-
133-6
510--
-112-
-1--1
--125
-----
-1102
--4-3
1-343

Generation = 10, Population = 19.
--2--
2--1-
--1-3
-223-
32012
--2--
-0---
122--
2----
-----

*** Life<FredkinCell> 5x6 ***

Generation = 0, Population = 16.
00-00-
00----
000---
---000
--0000

Generation = 1, Population = 19.
---110
11-00-
-11-00
000-1-
-0111-

Generation = 2, Population = 19.
000-21
2-0-10
02-011
1-10--
--2--0

Generation = 3, Population = 13.
------
--1021
13--2-
20----
003-1-

Generation = 4, Population = 14.
--0121
2-2-32
----3-
31----
-14--0

Generation = 5, Population = 16.
00--3-
--304-
-3104-
4---10
--511-

Generation = 6, Population = 19.
11--41
21-152
-4215-
---021
016---

Generation = 7, Population = 13.
--0---
-23---
----61
4-1-32
1-7-10

Generation = 8, Population = 16.
--11--
23-152
14-1--
5-2-43
2-8---

Generation = 9, Population = 20.
1-2--1
--32-3
2-226-
-13054
3-9110

Generation = 10, Population = 15.
--3-42
-34-54
-43--1
52----
-1-22-

Generation = 11, Population = 16.
--4---
2-5--5
-5-2-2
63-054
-2-330

Generation = 12, Population = 21.
1151-2
-36-56
26336-
74-165
-3--4-

Generation = 13, Population = 19.
226243
247---
--4472
-53--6
-49-5-

Generation = 14, Population = 14.
-37--4
-582--
265---
7-4-67
3-----

*** Life<FredkinCell> 6x10 ***

Generation = 0, Population = 13.
000-------
00-----0--
-00----0--
-0----0-0-
-------0--
----------

Generation = 1, Population = 19.
-110---0--
-10---010-
-110---1--
01---0---0
-0--------
-------0--

Generation = 2, Population = 35.
0-210--1--
0210-01-10
-22100-2-0
12-00-000-
-10--0-0-0
-0----0-0-

Generation = 3, Population = 26.
11-21----0
-3-1--2-2-
033-1--3-1
23----1-10
-21----1--
01-----0--

Generation = 4, Population = 31.
2---200---
0-1200-1-0
--41-00--2
-40-00--2-
0320---2-0
1-----010-

Generation = 5, Population = 31.
312--11--0
1--311---1
0-5--11--3
--1-1----0
-431-0-3--
2-00-0121-

Generation = 6, Population = 33.
--3---2101
--14-22-2-
1-6-1-230-
2--0-01021
-5--0104-0
-1-----320

Generation = 7, Population = 29.
-14-----12
1325133---
2-7---341-
3-------3-
-63-1215--
220-00----

Generation = 8, Population = 24.
----212123
-4-------1
-38-1----3
4---10-041
0----3-6--
33-----3--

Generation = 9, Population = 22.
-1-23-----
15---331--
--9-2--4--
5-10------
-----4---0
-40--0142-

Generation = 10, Population = 30.
-2-34-21--
2--514--2-
--+1---51-
---1-0-0-1
06-115-6--
35100---3-
