22

10 5
18
5 1
1 0
9 0
9 1
7 3
3 3
1 1
9 3
2 0
5 4
5 4
9 2
2 2
4 3
2 3
0 3
0 4
7 0
2 2

9 6
28
7 2
4 4
4 2
2 1
4 2
0 5
1 1
3 5
1 2
3 4
1 2
7 1
5 4
6 4
6 2
2 1
8 4
2 0
3 4
5 0
6 4
8 2
6 0
0 2
6 4
3 5
5 3
7 5
17 2

6 8
15
1 5
3 5
4 1
4 1
5 0
2 1
3 0
5 3
3 4
1 0
3 6
1 1
5 2
4 7
3 5
3 2

9 6
14
2 2
8 5
8 5
3 1
4 1
6 4
3 2
3 2
8 3
0 5
7 0
2 1
3 0
0 5
10 1

7 6
9
6 3
0 4
4 2
4 1
6 4
4 5
4 4
6 1
5 3
6 2

10 6
23
5 2
2 4
0 5
4 0
6 1
2 0
4 1
2 2
8 1
7 4
2 1
2 3
2 3
5 2
4 1
7 0
3 0
8 5
9 4
9 5
7 5
4 4
2 4
13 1

8 5
34
6 3
0 0
6 3
7 4
7 0
5 4
1 2
2 0
3 0
3 2
5 2
3 4
7 1
0 2
3 4
3 3
7 3
1 4
7 2
3 1
6 4
4 0
2 0
0 0
7 2
5 2
6 4
7 4
0 4
5 2
5 3
3 3
5 1
4 1
5 2

7 10
34
0 2
6 2
0 6
2 7
2 4
4 3
6 6
0 6
3 4
2 3
2 0
0 7
6 4
4 4
2 7
0 9
6 8
0 7
2 4
3 4
5 3
1 2
6 1
1 6
6 0
0 7
4 7
4 3
6 2
0 2
0 5
2 3
0 3
3 1
11 1

5 5
32
1 1
2 1
4 4
3 1
2 0
2 3
2 1
0 0
2 3
0 3
4 1
1 1
0 3
3 2
0 0
4 1
4 2
3 4
2 3
0 3
4 1
3 3
4 1
3 0
1 0
3 1
2 1
1 1
0 4
3 0
1 0
0 2
13 2

8 5
21
5 1
6 2
7 0
0 2
1 3
4 3
5 0
0 4
1 0
0 3
3 2
1 4
1 2
0 1
6 1
0 3
6 1
2 1
7 4
2 1
3 2
15 2

7 10
24
5 2
3 7
0 1
2 0
6 7
2 6
5 5
5 4
6 6
1 3
2 5
3 1
5 2
4 1
3 5
1 1
6 1
0 5
3 3
4 1
4 1
0 0
1 1
2 5
6 1

10 6
28
0 2
6 4
1 3
7 5
6 2
8 5
2 3
7 5
7 3
1 4
7 2
1 3
0 0
2 4
7 5
8 0
7 2
8 3
9 1
6 0
0 1
9 5
2 3
6 4
1 2
6 1
0 4
7 0
1 1

6 5
14
1 2
3 0
0 1
0 0
5 0
2 0
5 4
3 1
0 1
3 2
4 1
5 0
3 3
0 2
16 2

6 10
40
0 8
1 3
0 1
3 1
0 2
1 0
1 9
3 9
0 7
3 0
3 6
1 5
2 9
4 6
0 3
0 1
5 5
4 9
1 4
5 6
4 1
2 5
3 5
4 1
1 0
0 4
4 9
2 0
3 0
4 6
3 5
5 1
4 6
0 0
5 0
0 7
2 6
2 2
4 6
0 6
8 2

9 10
18
6 3
8 4
4 8
5 2
4 1
7 5
1 2
3 6
8 9
2 4
8 4
1 3
3 4
5 2
5 2
4 8
8 6
4 2
12 2

6 8
20
0 3
2 1
2 0
0 1
3 7
0 3
3 3
2 7
2 2
0 6
2 5
5 5
1 6
2 0
4 4
4 4
4 3
1 4
5 1
1 6
6 1

7 9
28
6 4
5 5
2 5
3 6
6 0
0 8
4 8
3 3
2 1
2 0
5 5
5 8
5 8
3 4
3 1
4 4
6 8
6 3
3 3
3 5
2 3
0 3
5 4
3 0
6 5
1 8
5 2
4 6
5 2

6 7
34
5 2
1 3
1 1
3 3
0 4
0 6
1 2
1 3
4 3
0 1
3 5
5 5
4 1
5 3
4 1
1 0
4 2
5 0
0 6
1 4
0 1
1 6
1 2
5 3
4 4
2 5
2 3
1 6
4 4
2 4
5 5
5 5
2 4
4 4
16 1

5 7
37
2 2
2 5
3 6
0 0
3 3
4 0
1 1
4 0
1 6
4 6
3 5
3 6
1 6
2 2
4 3
4 2
2 0
0 4
0 2
1 4
4 0
4 5
3 4
4 1
2 3
4 2
4 3
3 6
2 5
4 4
1 6
2 4
4 4
4 3
2 3
1 3
0 4
18 1

9 6
20
8 1
3 0
6 1
5 5
0 3
6 3
2 2
2 3
3 0
1 3
0 3
8 5
5 5
2 2
5 1
8 1
6 0
4 1
8 0
7 3
5 2

9 9
12
1 6
0 6
4 6
1 3
1 7
4 6
4 2
2 7
3 0
3 5
0 6
2 0
18 1

8 8
3
1 6
2 6
0 5
3 1
