20

17 45
35
10 30
14 29
6 9
13 4
16 10
11 22
8 7
4 10
7 30
4 26
15 24
0 31
11 24
1 16
2 10
6 37
5 8
16 38
3 1
7 7
3 24
4 34
3 28
1 25
13 23
15 1
11 11
11 16
9 29
13 30
12 7
6 40
13 33
5 24
1 19
200 171

27 79
50
24 47
4 76
6 24
26 12
17 62
12 72
17 45
24 51
16 60
3 22
20 58
12 32
11 48
18 47
10 1
19 15
23 0
15 26
19 36
18 77
22 14
5 1
6 52
23 3
1 39
7 63
18 18
9 9
12 44
7 12
6 78
3 12
2 40
21 28
23 52
15 57
3 52
17 32
3 12
22 38
0 15
16 19
13 15
18 68
20 7
24 0
22 21
20 62
1 34
12 75
200 92

50 95
5
9 47
36 59
3 35
36 19
12 16
200 165

17 31
27
4 10
10 10
10 11
12 22
15 22
6 10
5 15
5 3
16 2
11 0
4 9
9 4
10 1
11 4
10 20
11 19
7 3
7 11
6 16
13 9
7 23
1 15
5 30
8 1
6 12
7 7
11 9
200 65

37 39
12
27 31
31 1
10 16
0 20
3 21
5 8
23 2
18 21
27 9
3 25
12 1
1 19
167 144

39 13
39
10 4
2 3
16 10
20 10
23 10
5 6
22 4
16 10
7 11
10 8
14 9
29 3
11 5
2 1
35 4
9 1
36 4
6 11
7 8
33 7
6 2
2 5
9 12
21 5
34 6
29 5
33 1
23 8
2 12
15 10
1 8
8 1
5 6
26 11
20 6
10 8
4 5
23 5
16 1
200 134

15 67
13
9 66
0 41
12 9
8 49
13 45
1 20
6 62
13 1
2 33
9 45
9 53
6 46
0 18
200 198

30 45
8
5 16
7 20
3 36
11 35
3 20
11 29
29 35
28 40
200 103

26 27
43
13 23
24 7
12 12
1 9
5 12
23 18
20 0
15 4
9 13
11 22
21 6
9 25
0 15
7 20
15 23
20 19
18 26
13 17
3 12
23 18
0 4
20 12
19 23
14 20
12 18
18 25
1 20
15 15
15 5
8 14
8 24
0 13
4 2
1 20
13 24
3 7
9 10
13 16
6 3
3 17
4 21
25 22
19 13
200 123

9 75
42
0 38
1 11
5 17
0 34
2 56
2 13
2 39
5 6
0 19
5 14
3 31
0 51
7 8
3 27
0 5
8 41
5 53
0 60
4 0
5 66
2 49
7 28
3 14
3 44
0 5
3 61
0 24
3 58
3 10
8 22
6 62
3 34
4 12
4 42
8 73
7 52
1 17
7 0
5 51
3 41
2 54
5 2
200 196

15 86
4
14 58
3 23
8 18
0 66
17 196

6 17
12
1 9
3 8
2 7
5 16
3 9
5 12
1 13
3 1
0 9
0 11
5 16
3 5
200 109

99 88
35
32 69
10 87
77 6
84 2
92 2
74 24
93 78
45 9
97 2
71 56
92 7
35 32
15 76
17 68
28 39
40 52
82 26
17 5
60 42
24 87
78 5
0 9
44 47
48 2
43 25
31 36
5 52
74 55
26 46
17 66
94 69
74 77
53 69
80 87
90 21
200 173

49 27
25
1 24
14 21
22 2
24 15
9 26
33 19
33 0
8 16
47 23
17 18
37 23
28 10
13 17
8 26
32 12
48 2
43 7
12 0
30 8
3 22
40 19
7 19
34 20
48 1
16 12
200 91

21 20
16
19 2
9 12
18 8
0 5
10 15
11 15
8 1
6 7
12 18
16 11
4 14
20 2
4 2
3 4
7 5
16 17
200 170

96 6
35
85 1
2 4
37 2
75 2
4 2
28 4
89 5
25 5
26 3
8 5
26 3
69 0
64 3
81 3
34 3
85 2
7 1
52 2
47 5
67 0
51 1
44 5
7 5
12 5
44 1
27 4
84 5
68 0
17 3
87 2
64 1
51 5
92 0
24 2
28 3
200 40

85 89
41
72 56
48 41
53 30
55 60
25 51
15 84
13 87
58 1
56 5
38 18
19 37
48 45
45 3
27 3
48 20
68 40
52 25
37 84
82 38
76 61
44 2
78 58
73 14
52 32
48 7
11 70
69 0
32 28
29 77
49 87
59 5
29 14
9 26
14 13
66 18
78 55
75 72
35 51
41 1
0 29
73 43
200 42

50 54
6
48 7
32 6
27 21
36 41
7 49
48 6
200 76

42 96
43
7 83
37 7
12 31
13 17
4 10
38 64
25 45
29 22
8 24
10 8
8 84
7 81
41 6
41 46
20 12
30 1
10 41
2 41
41 6
11 66
26 57
36 23
18 9
35 56
38 91
13 36
14 2
18 16
40 57
6 24
2 70
25 83
4 73
4 21
39 59
2 48
10 70
34 75
12 22
16 18
5 80
2 17
14 78
200 45

79 99
26
35 60
42 71
27 13
62 45
66 71
47 68
17 82
74 42
22 33
78 70
7 64
75 84
67 50
62 31
13 54
59 45
24 11
51 85
22 23
10 47
56 58
58 45
55 86
55 32
29 40
38 88
200 38
