20

56 93
18
52 2
18 76
54 8
22 2
28 37
23 69
40 11
0 34
35 42
3 34
42 49
49 35
35 45
55 21
35 4
48 20
31 18
16 39
200 116

86 44
7
44 6
53 40
61 43
35 18
37 37
37 36
67 12
200 77

45 28
4
26 15
7 23
10 10
5 17
200 123

33 92
25
15 23
29 11
25 15
12 39
14 61
20 30
27 50
27 73
11 30
15 88
23 87
19 3
24 66
14 3
10 7
21 12
12 10
11 0
15 81
2 79
28 32
18 43
30 79
20 54
13 64
200 6

13 73
16
11 61
6 7
10 20
0 4
3 13
1 41
10 11
10 18
0 69
5 58
2 61
2 26
6 16
1 13
5 31
6 65
200 43

14 3
6
0 2
1 1
13 2
2 2
5 1
2 2
200 14

96 77
10
32 54
12 45
50 64
26 56
17 39
1 30
3 63
86 15
7 72
23 25
200 6

14 87
5
8 54
11 34
6 21
6 65
4 70
200 131

23 30
22
10 1
10 19
11 14
19 14
4 2
22 20
3 7
6 15
5 27
21 18
15 18
18 27
21 18
19 5
13 25
5 28
10 1
6 22
15 24
5 23
14 17
11 10
200 132

78 85
26
63 32
5 73
26 72
49 10
57 73
60 34
50 27
39 58
49 4
29 49
59 34
1 41
16 24
58 34
20 38
58 12
59 11
10 59
28 50
29 34
53 84
9 1
76 22
1 39
2 47
22 67
200 112

72 26
41
25 7
69 14
26 15
5 15
24 17
17 16
7 8
54 17
20 15
21 7
15 9
52 21
6 2
59 12
1 14
15 13
53 9
17 8
59 2
4 2
57 20
66 5
31 7
62 13
57 12
52 17
1 11
43 16
50 7
32 25
65 16
56 19
42 20
66 0
2 24
50 7
56 16
6 25
16 6
27 7
27 4
143 23

74 33
23
18 31
59 18
0 5
65 25
5 18
47 21
58 1
36 19
54 13
3 31
49 16
28 27
57 24
25 14
45 31
13 20
37 24
7 21
50 32
67 19
10 12
43 28
18 28
200 36

71 9
19
70 2
60 8
45 6
68 6
21 5
25 6
29 6
65 8
70 6
18 3
61 3
39 7
6 8
66 2
59 8
8 0
42 5
44 3
30 3
200 29

33 71
5
11 18
20 48
29 63
9 35
24 49
200 140

23 42
51
13 28
1 6
3 21
13 3
18 19
16 31
9 3
21 6
6 27
5 7
12 13
18 21
22 37
14 21
13 38
13 15
12 5
6 21
2 10
9 30
17 25
0 3
0 25
21 36
9 20
22 24
11 33
0 33
14 30
17 41
1 38
16 2
1 6
4 25
16 39
18 30
11 15
22 17
3 0
14 21
4 8
3 32
7 37
16 31
8 41
9 14
8 23
20 35
9 41
20 30
17 13
200 97

55 3
46
49 1
19 2
36 1
35 0
17 0
35 0
38 0
20 1
54 2
52 1
43 2
17 1
51 2
37 0
8 0
34 2
3 1
44 1
27 1
27 2
6 2
20 2
24 1
17 0
26 0
31 0
14 1
39 1
15 1
12 0
38 0
50 1
47 1
9 0
53 0
19 0
36 2
7 2
8 1
34 1
33 2
11 2
48 0
30 1
19 0
39 2
200 32

21 15
23
12 2
0 6
0 5
6 6
16 5
19 1
8 14
12 9
7 10
8 12
11 4
19 7
9 13
18 6
4 13
15 10
3 13
12 10
0 13
8 2
4 9
20 0
3 9
200 137

87 22
33
32 10
33 14
57 10
82 13
17 0
72 11
41 8
80 11
58 2
67 13
29 2
4 2
72 15
15 1
31 16
57 2
33 14
69 8
4 6
58 10
86 5
68 7
53 8
53 16
40 11
23 8
79 3
12 7
9 4
55 16
62 3
32 9
66 6
200 163

94 37
33
34 30
53 14
24 12
73 20
44 3
4 30
61 15
4 18
49 13
50 0
6 10
42 7
57 13
25 0
12 19
87 0
34 17
33 30
14 28
3 35
87 25
93 33
3 4
66 24
15 30
16 26
69 10
70 31
49 22
26 9
49 17
82 22
28 1
200 74

47 62
41
36 5
38 25
23 25
12 55
12 29
6 56
8 31
26 52
0 11
25 19
39 60
42 47
26 1
0 41
5 13
6 1
31 12
5 46
1 53
45 56
34 31
32 22
43 40
2 5
22 19
6 41
37 38
0 41
12 10
25 55
31 52
44 39
32 38
38 24
22 42
33 61
27 51
38 6
40 53
20 60
27 44
200 52
