*** Life<ConwayCell> 13x17 ***

Generation = 0, Population = 1.
.................
.................
.................
.................
.................
.................
............*....
.................
.................
.................
.................
.................
.................

Generation = 49, Population = 0.
.................
.................
.................
.................
.................
.................
.................
.................
.................
.................
.................
.................
.................

*** Life<ConwayCell> 7x5 ***

Generation = 0, Population = 9.
.**..
...**
....*
.....
..*..
.**..
*....

*** Life<ConwayCell> 4x11 ***

Generation = 0, Population = 9.
*.*.*...**.
..*......*.
...........
*...*......

Generation = 10, Population = 4.
........**.
........**.
...........
...........

Generation = 20, Population = 4.
........**.
........**.
...........
...........

*** Life<ConwayCell> 10x11 ***

Generation = 0, Population = 11.
...........
.*.....*...
...........
..*........
...........
..**.......
.....**....
....*......
...*.....*.
..........*

*** Life<ConwayCell> 5x12 ***

Generation = 0, Population = 22.
.......***..
.....**.....
*.**.**.....
*...*.****.*
.*.*.**.*...

*** Life<ConwayCell> 12x6 ***

Generation = 0, Population = 9.
..*...
*..*..
.*..*.
......
....*.
.*....
......
......
......
......
......
*...*.

Generation = 67, Population = 3.
......
.***..
......
......
......
......
......
......
......
......
......
......

*** Life<ConwayCell> 6x18 ***

Generation = 0, Population = 19.
................*.
.....**.....*....*
..*.*.*..........*
..*.*.........*.*.
...*.......*......
.......*....*...**

Generation = 61, Population = 11.
..*...............
.*.*..............
.*.*..............
..*.........*.....
...........*.*....
............**....

*** Life<ConwayCell> 1x16 ***

Generation = 0, Population = 12.
.*.**..*********

Generation = 23, Population = 0.
................

Generation = 46, Population = 0.
................

*** Life<ConwayCell> 15x6 ***

Generation = 0, Population = 16.
.*....
...**.
.....*
......
..*..*
......
..**..
......
......
..***.
.*....
...**.
..*...
......
.*....

Generation = 3, Population = 8.
......
......
......
......
......
......
......
......
..**..
..**..
......
..**..
..**..
......
......

Generation = 6, Population = 8.
......
......
......
......
......
......
......
......
..**..
..**..
......
..**..
..**..
......
......

Generation = 9, Population = 8.
......
......
......
......
......
......
......
......
..**..
..**..
......
..**..
..**..
......
......

Generation = 12, Population = 8.
......
......
......
......
......
......
......
......
..**..
..**..
......
..**..
..**..
......
......

Generation = 15, Population = 8.
......
......
......
......
......
......
......
......
..**..
..**..
......
..**..
..**..
......
......

Generation = 18, Population = 8.
......
......
......
......
......
......
......
......
..**..
..**..
......
..**..
..**..
......
......

Generation = 21, Population = 8.
......
......
......
......
......
......
......
......
..**..
..**..
......
..**..
..**..
......
......

Generation = 24, Population = 8.
......
......
......
......
......
......
......
......
..**..
..**..
......
..**..
..**..
......
......

Generation = 27, Population = 8.
......
......
......
......
......
......
......
......
..**..
..**..
......
..**..
..**..
......
......

Generation = 30, Population = 8.
......
......
......
......
......
......
......
......
..**..
..**..
......
..**..
..**..
......
......

Generation = 33, Population = 8.
......
......
......
......
......
......
......
......
..**..
..**..
......
..**..
..**..
......
......

Generation = 36, Population = 8.
......
......
......
......
......
......
......
......
..**..
..**..
......
..**..
..**..
......
......

Generation = 39, Population = 8.
......
......
......
......
......
......
......
......
..**..
..**..
......
..**..
..**..
......
......

Generation = 42, Population = 8.
......
......
......
......
......
......
......
......
..**..
..**..
......
..**..
..**..
......
......

Generation = 45, Population = 8.
......
......
......
......
......
......
......
......
..**..
..**..
......
..**..
..**..
......
......

Generation = 48, Population = 8.
......
......
......
......
......
......
......
......
..**..
..**..
......
..**..
..**..
......
......

Generation = 51, Population = 8.
......
......
......
......
......
......
......
......
..**..
..**..
......
..**..
..**..
......
......

Generation = 54, Population = 8.
......
......
......
......
......
......
......
......
..**..
..**..
......
..**..
..**..
......
......

Generation = 57, Population = 8.
......
......
......
......
......
......
......
......
..**..
..**..
......
..**..
..**..
......
......

Generation = 60, Population = 8.
......
......
......
......
......
......
......
......
..**..
..**..
......
..**..
..**..
......
......

Generation = 63, Population = 8.
......
......
......
......
......
......
......
......
..**..
..**..
......
..**..
..**..
......
......

Generation = 66, Population = 8.
......
......
......
......
......
......
......
......
..**..
..**..
......
..**..
..**..
......
......

Generation = 69, Population = 8.
......
......
......
......
......
......
......
......
..**..
..**..
......
..**..
..**..
......
......

Generation = 72, Population = 8.
......
......
......
......
......
......
......
......
..**..
..**..
......
..**..
..**..
......
......

Generation = 75, Population = 8.
......
......
......
......
......
......
......
......
..**..
..**..
......
..**..
..**..
......
......

Generation = 78, Population = 8.
......
......
......
......
......
......
......
......
..**..
..**..
......
..**..
..**..
......
......

Generation = 81, Population = 8.
......
......
......
......
......
......
......
......
..**..
..**..
......
..**..
..**..
......
......

Generation = 84, Population = 8.
......
......
......
......
......
......
......
......
..**..
..**..
......
..**..
..**..
......
......

Generation = 87, Population = 8.
......
......
......
......
......
......
......
......
..**..
..**..
......
..**..
..**..
......
......

Generation = 90, Population = 8.
......
......
......
......
......
......
......
......
..**..
..**..
......
..**..
..**..
......
......

*** Life<ConwayCell> 7x1 ***

Generation = 0, Population = 2.
.
.
.
.
*
*
.

*** Life<ConwayCell> 20x6 ***

Generation = 0, Population = 4.
......
.....*
......
......
......
......
......
......
......
.*....
......
......
....*.
....*.
......
......
......
......
......
......

*** Life<ConwayCell> 18x4 ***

Generation = 0, Population = 6.
....
....
..*.
....
*...
....
.*..
...*
....
....
....
....
...*
....
....
.*..
....
....

*** Life<ConwayCell> 20x9 ***

Generation = 0, Population = 1.
.........
.........
.........
.........
.........
..*......
.........
.........
.........
.........
.........
.........
.........
.........
.........
.........
.........
.........
.........
.........

*** Life<ConwayCell> 1x11 ***

Generation = 0, Population = 9.
******.*.**

*** Life<ConwayCell> 6x13 ***

Generation = 0, Population = 7.
............*
.....*.......
......**.....
..*..........
.............
..*.......*..

Generation = 25, Population = 0.
.............
.............
.............
.............
.............
.............

*** Life<ConwayCell> 1x19 ***

Generation = 0, Population = 10.
.*.*..*.*****.*.*..

Generation = 23, Population = 0.
...................

Generation = 46, Population = 0.
...................

*** Life<ConwayCell> 15x19 ***

Generation = 0, Population = 12.
...................
.............*.....
...*...............
................*..
*....*............*
................*..
...................
............*......
.................*.
........*..........
...................
.....*...........*.
...................
...................
...................

Generation = 1, Population = 1.
...................
...................
...................
...................
.................*.
...................
...................
...................
...................
...................
...................
...................
...................
...................
...................

Generation = 2, Population = 0.
...................
...................
...................
...................
...................
...................
...................
...................
...................
...................
...................
...................
...................
...................
...................

Generation = 3, Population = 0.
...................
...................
...................
...................
...................
...................
...................
...................
...................
...................
...................
...................
...................
...................
...................

Generation = 4, Population = 0.
...................
...................
...................
...................
...................
...................
...................
...................
...................
...................
...................
...................
...................
...................
...................

Generation = 5, Population = 0.
...................
...................
...................
...................
...................
...................
...................
...................
...................
...................
...................
...................
...................
...................
...................

Generation = 6, Population = 0.
...................
...................
...................
...................
...................
...................
...................
...................
...................
...................
...................
...................
...................
...................
...................

Generation = 7, Population = 0.
...................
...................
...................
...................
...................
...................
...................
...................
...................
...................
...................
...................
...................
...................
...................

Generation = 8, Population = 0.
...................
...................
...................
...................
...................
...................
...................
...................
...................
...................
...................
...................
...................
...................
...................

Generation = 9, Population = 0.
...................
...................
...................
...................
...................
...................
...................
...................
...................
...................
...................
...................
...................
...................
...................

Generation = 10, Population = 0.
...................
...................
...................
...................
...................
...................
...................
...................
...................
...................
...................
...................
...................
...................
...................

Generation = 11, Population = 0.
...................
...................
...................
...................
...................
...................
...................
...................
...................
...................
...................
...................
...................
...................
...................

Generation = 12, Population = 0.
...................
...................
...................
...................
...................
...................
...................
...................
...................
...................
...................
...................
...................
...................
...................

Generation = 13, Population = 0.
...................
...................
...................
...................
...................
...................
...................
...................
...................
...................
...................
...................
...................
...................
...................

Generation = 14, Population = 0.
...................
...................
...................
...................
...................
...................
...................
...................
...................
...................
...................
...................
...................
...................
...................

Generation = 15, Population = 0.
...................
...................
...................
...................
...................
...................
...................
...................
...................
...................
...................
...................
...................
...................
...................

Generation = 16, Population = 0.
...................
...................
...................
...................
...................
...................
...................
...................
...................
...................
...................
...................
...................
...................
...................

Generation = 17, Population = 0.
...................
...................
...................
...................
...................
...................
...................
...................
...................
...................
...................
...................
...................
...................
...................

Generation = 18, Population = 0.
...................
...................
...................
...................
...................
...................
...................
...................
...................
...................
...................
...................
...................
...................
...................

Generation = 19, Population = 0.
...................
...................
...................
...................
...................
...................
...................
...................
...................
...................
...................
...................
...................
...................
...................

Generation = 20, Population = 0.
...................
...................
...................
...................
...................
...................
...................
...................
...................
...................
...................
...................
...................
...................
...................

Generation = 21, Population = 0.
...................
...................
...................
...................
...................
...................
...................
...................
...................
...................
...................
...................
...................
...................
...................

Generation = 22, Population = 0.
...................
...................
...................
...................
...................
...................
...................
...................
...................
...................
...................
...................
...................
...................
...................

Generation = 23, Population = 0.
...................
...................
...................
...................
...................
...................
...................
...................
...................
...................
...................
...................
...................
...................
...................

Generation = 24, Population = 0.
...................
...................
...................
...................
...................
...................
...................
...................
...................
...................
...................
...................
...................
...................
...................

Generation = 25, Population = 0.
...................
...................
...................
...................
...................
...................
...................
...................
...................
...................
...................
...................
...................
...................
...................

Generation = 26, Population = 0.
...................
...................
...................
...................
...................
...................
...................
...................
...................
...................
...................
...................
...................
...................
...................

Generation = 27, Population = 0.
...................
...................
...................
...................
...................
...................
...................
...................
...................
...................
...................
...................
...................
...................
...................

Generation = 28, Population = 0.
...................
...................
...................
...................
...................
...................
...................
...................
...................
...................
...................
...................
...................
...................
...................

Generation = 29, Population = 0.
...................
...................
...................
...................
...................
...................
...................
...................
...................
...................
...................
...................
...................
...................
...................

Generation = 30, Population = 0.
...................
...................
...................
...................
...................
...................
...................
...................
...................
...................
...................
...................
...................
...................
...................

Generation = 31, Population = 0.
...................
...................
...................
...................
...................
...................
...................
...................
...................
...................
...................
...................
...................
...................
...................

Generation = 32, Population = 0.
...................
...................
...................
...................
...................
...................
...................
...................
...................
...................
...................
...................
...................
...................
...................

Generation = 33, Population = 0.
...................
...................
...................
...................
...................
...................
...................
...................
...................
...................
...................
...................
...................
...................
...................

Generation = 34, Population = 0.
...................
...................
...................
...................
...................
...................
...................
...................
...................
...................
...................
...................
...................
...................
...................

*** Life<ConwayCell> 9x12 ***

Generation = 0, Population = 25.
.....*......
*.....**....
...*...*..*.
*..*.......*
..*.....*...
*....*..*.*.
**...*......
.**.....*...
.*......*.*.

*** Life<ConwayCell> 3x7 ***

Generation = 0, Population = 1.
.......
.......
....*..

Generation = 49, Population = 0.
.......
.......
.......

*** Life<ConwayCell> 20x17 ***

Generation = 0, Population = 13.
..............*..
.........*...*...
.................
.................
....*............
.................
.................
.................
...............*.
.................
.......*.....*...
.................
................*
.................
..............*..
.................
..........*......
...............*.
.................
...*....*........

*** Life<ConwayCell> 13x8 ***

Generation = 0, Population = 19.
....*..*
*.*..**.
........
....*...
.......*
....*.**
........
.....**.
..*.....
*.......
........
.**.....
.....**.

Generation = 49, Population = 0.
........
........
........
........
........
........
........
........
........
........
........
........
........

*** Life<ConwayCell> 14x4 ***

Generation = 0, Population = 18.
...*
.*.*
..*.
.*..
..*.
..*.
*.**
....
.*..
..*.
*...
*.*.
....
.***

Generation = 17, Population = 5.
....
....
....
....
....
....
..*.
.*.*
.**.
....
....
....
....
....

Generation = 34, Population = 5.
....
....
....
....
....
....
..*.
.*.*
.**.
....
....
....
....
....

*** Life<ConwayCell> 17x7 ***

Generation = 0, Population = 23.
..**.*.
*..***.
....**.
......*
..*....
..*....
.......
......*
.*.*...
...*...
.......
*...*..
.......
.....*.
.*.....
...*...
.*....*

*** Life<ConwayCell> 13x13 ***

Generation = 0, Population = 27.
.....*.....*.
.............
............*
.....*.*..*..
..........*..
........*....
*............
**...........
*..***.*.....
...*..**.....
...*.......**
*.*......*...
.*.......*...

Generation = 10, Population = 3.
.............
.............
.............
.............
.............
.............
.............
.............
.............
.............
...*.........
..*.*........
.............

Generation = 20, Population = 0.
.............
.............
.............
.............
.............
.............
.............
.............
.............
.............
.............
.............
.............

Generation = 30, Population = 0.
.............
.............
.............
.............
.............
.............
.............
.............
.............
.............
.............
.............
.............

Generation = 40, Population = 0.
.............
.............
.............
.............
.............
.............
.............
.............
.............
.............
.............
.............
.............

Generation = 50, Population = 0.
.............
.............
.............
.............
.............
.............
.............
.............
.............
.............
.............
.............
.............

Generation = 60, Population = 0.
.............
.............
.............
.............
.............
.............
.............
.............
.............
.............
.............
.............
.............

Generation = 70, Population = 0.
.............
.............
.............
.............
.............
.............
.............
.............
.............
.............
.............
.............
.............

*** Life<ConwayCell> 13x11 ***

Generation = 0, Population = 2.
...........
...........
...........
...........
...........
*..........
...........
...........
...........
...........
...........
...........
......*....

*** Life<ConwayCell> 17x7 ***

Generation = 0, Population = 16.
*..*...
.*.....
.......
.......
.*.....
.....*.
.*.....
.......
..**...
.......
*......
.*..*..
..*...*
.......
.....*.
.....*.
...*...

Generation = 49, Population = 0.
.......
.......
.......
.......
.......
.......
.......
.......
.......
.......
.......
.......
.......
.......
.......
.......
.......

*** Life<ConwayCell> 9x20 ***

Generation = 0, Population = 26.
*...................
....**.......**....*
....................
........*.*.......*.
......*...*........*
.....*.....**.......
........*...........
...*......*.*.......
.**...***...*....*..

*** Life<ConwayCell> 2x19 ***

Generation = 0, Population = 18.
.***.*.**..*..*..*.
**.***.....**..*.*.

Generation = 18, Population = 12.
**...**....**......
**...**....**......

Generation = 36, Population = 12.
**...**....**......
**...**....**......

Generation = 54, Population = 12.
**...**....**......
**...**....**......

Generation = 72, Population = 12.
**...**....**......
**...**....**......

Generation = 90, Population = 12.
**...**....**......
**...**....**......

*** Life<ConwayCell> 16x13 ***

Generation = 0, Population = 26.
...*......*..
*.........*.*
............*
.....*....*..
.............
...*.........
....*........
....*....*.*.
...*.*...*...
......*......
.........*...
....*....*..*
.............
.*...*..*....
.............
.........*.*.

